cache_design.vcd
$date
	Tue Sep 27 15:32:38 2016
$end

$version
	Synopsys VCS version F-2011.12
$end

$timescale
	1ps
$end

$comment Csum: 1 4baea0569fe214be $end


$scope module testbench_v $end
$var integer 32 ! input_file $end
$var integer 32 " output_file $end
$var integer 32 # errors $end
$var integer 32 $ linenum $end
$var reg 1 % clk $end
$var reg 1 & rst $end
$var wire 16 ' mem_idata [15:0] $end
$var wire 16 ( mem_iaddr [15:0] $end
$var wire 16 ) req_addr [15:0] $end
$var wire 16 * delayer_data [15:0] $end
$var reg 16 + addr [15:0] $end
$var wire 1 , valid $end
$var wire 16 - data [15:0] $end
$var wire 1 . gwe $end
$var reg 1 / expected_valid $end
$var reg 16 0 expected_data [15:0] $end

$scope module uut $end
$var wire 1 1 clk $end
$var wire 1 . gwe $end
$var wire 1 2 rst $end
$var wire 16 ' mem_idata [15:0] $end
$var wire 16 ) mem_iaddr [15:0] $end
$var wire 16 3 addr [15:0] $end
$var wire 1 , valid $end
$var wire 16 - data [15:0] $end
$var wire 7 4 blockid [6:0] $end
$var wire 8 5 tag [7:0] $end
$var reg 1 6 hit $end
$var reg 1 7 cmp $end
$var reg 16 8 miss_addr [15:0] $end
$var reg 16 9 miss_addr_1d [15:0] $end
$var reg 16 : miss_addr_2d [15:0] $end
$var reg 16 ; miss_addr_3d [15:0] $end
$var reg 16 < miss_addr_4d [15:0] $end
$var reg 16 = miss_addr_5d [15:0] $end
$var reg 16 > miss_addr_6d [15:0] $end
$var reg 16 ? miss_addr_7d [15:0] $end
$var reg 16 @ miss_addr_8d [15:0] $end
$var reg 17 A mem0 [16:0] $end
$var wire 1 B cvld $end
$var reg 1 C miss $end
$var reg 1 D miss_1d $end
$var reg 1 E miss_2d $end
$var reg 1 F miss_3d $end
$var reg 1 G miss_4d $end
$var reg 1 H miss_5d $end
$var reg 1 I miss_6d $end
$var reg 1 J miss_7d $end
$var reg 1 K miss_8d $end
$var wire 1 L vld $end

$scope begin unnamed$$_6 $end
$upscope $end

$upscope $end


$scope module delayer $end
$var wire 1 M clk $end
$var wire 1 . gwe $end
$var wire 1 N rst $end
$var wire 16 * in_value [15:0] $end
$var wire 16 ' out_value [15:0] $end
$var wire 16 O value_1_2 [15:0] $end
$var wire 16 P value_2_3 [15:0] $end
$var wire 16 Q value_3_4 [15:0] $end
$var wire 16 R value_4_5 [15:0] $end
$var wire 16 S value_5_6 [15:0] $end
$var wire 16 T value_6_7 [15:0] $end
$var wire 16 U value_7_8 [15:0] $end
$var wire 16 V value_8_9 [15:0] $end

$scope module stage_1 $end
$var wire 16 * in [15:0] $end
$var reg 16 W out [15:0] $end
$var wire 1 M clk $end
$var wire 1 X we $end
$var wire 1 . gwe $end
$var wire 1 N rst $end
$upscope $end


$scope module stage_2 $end
$var wire 16 O in [15:0] $end
$var reg 16 Y out [15:0] $end
$var wire 1 M clk $end
$var wire 1 Z we $end
$var wire 1 . gwe $end
$var wire 1 N rst $end
$upscope $end


$scope module stage_3 $end
$var wire 16 P in [15:0] $end
$var reg 16 [ out [15:0] $end
$var wire 1 M clk $end
$var wire 1 \ we $end
$var wire 1 . gwe $end
$var wire 1 N rst $end
$upscope $end


$scope module stage_4 $end
$var wire 16 Q in [15:0] $end
$var reg 16 ] out [15:0] $end
$var wire 1 M clk $end
$var wire 1 ^ we $end
$var wire 1 . gwe $end
$var wire 1 N rst $end
$upscope $end


$scope module stage_5 $end
$var wire 16 R in [15:0] $end
$var reg 16 _ out [15:0] $end
$var wire 1 M clk $end
$var wire 1 ` we $end
$var wire 1 . gwe $end
$var wire 1 N rst $end
$upscope $end


$scope module stage_6 $end
$var wire 16 S in [15:0] $end
$var reg 16 a out [15:0] $end
$var wire 1 M clk $end
$var wire 1 b we $end
$var wire 1 . gwe $end
$var wire 1 N rst $end
$upscope $end


$scope module stage_7 $end
$var wire 16 T in [15:0] $end
$var reg 16 c out [15:0] $end
$var wire 1 M clk $end
$var wire 1 d we $end
$var wire 1 . gwe $end
$var wire 1 N rst $end
$upscope $end


$scope module stage_8 $end
$var wire 16 U in [15:0] $end
$var reg 16 e out [15:0] $end
$var wire 1 M clk $end
$var wire 1 f we $end
$var wire 1 . gwe $end
$var wire 1 N rst $end
$upscope $end

$upscope $end

$upscope $end

$enddefinitions $end

#0
$dumpvars
0%
x7
xB
0M
1N
x/
z.
x6
xC
xD
xE
xF
xG
xH
xI
xJ
xK
1&
1Z
1\
1^
1`
1b
1d
1f
01
12
x,
xL
1X
b0000000000000000 +
b0000000 4
bxxxxxxxxxxxxxxxx -
b1010101010101010 *
b00000000000000000000000000000000 #
bxxxxxxxxxxxxxxxx 0
b10000000000000000000000000000011 !
b00000000000000000000000000000000 $
bxxxxxxxxxxxxxxxxx A
bzzzzzzzzzzzzzzzz (
bxxxxxxxxxxxxxxxx '
bxxxxxxxxxxxxxxxx 8
bxxxxxxxxxxxxxxxx 9
bxxxxxxxxxxxxxxxx :
bxxxxxxxxxxxxxxxx ;
bxxxxxxxxxxxxxxxx <
bxxxxxxxxxxxxxxxx =
bxxxxxxxxxxxxxxxx >
bxxxxxxxxxxxxxxxx ?
bxxxxxxxxxxxxxxxx @
bxxxxxxxxxxxxxxxx W
bxxxxxxxxxxxxxxxxxxxxxxxxxxxxxxxx "
b0000000000000000 )
bxxxxxxxxxxxxxxxx Y
bxxxxxxxxxxxxxxxx [
bxxxxxxxxxxxxxxxx ]
bxxxxxxxxxxxxxxxx _
bxxxxxxxxxxxxxxxx a
bxxxxxxxxxxxxxxxx c
bxxxxxxxxxxxxxxxx e
b00000000 5
b0000000000000000 3
bxxxxxxxxxxxxxxxx O
bxxxxxxxxxxxxxxxx P
bxxxxxxxxxxxxxxxx Q
bxxxxxxxxxxxxxxxx R
bxxxxxxxxxxxxxxxx S
bxxxxxxxxxxxxxxxx T
bxxxxxxxxxxxxxxxx U
bxxxxxxxxxxxxxxxx V
$end
#5000
1%
1M
11
0D
0E
0F
0G
0H
0I
0J
0K
b0000000000000000 8
b0000000000000000 9
b0000000000000000 :
b0000000000000000 ;
b0000000000000000 <
b0000000000000000 =
b0000000000000000 >
b0000000000000000 ?
b0000000000000000 @
b00000000000000000 A
0B
0L
b0000000000000000 -
1C
06
0,
17
#6000
b0000000000000000 W
b0000000000000000 O
b0000000000000000 Y
b0000000000000000 P
b0000000000000000 [
b0000000000000000 Q
b0000000000000000 ]
b0000000000000000 R
b0000000000000000 _
b0000000000000000 S
b0000000000000000 a
b0000000000000000 T
b0000000000000000 c
b0000000000000000 U
b0000000000000000 e
b0000000000000000 V
b0000000000000000 '
#10000
0%
0M
01
#15000
1%
1M
11
#20000
0%
0M
01
#25000
1%
1M
11
#30000
0%
0M
01
#35000
1%
1M
11
#40000
0%
0M
01
#45000
1%
1M
11
#50000
0%
0M
01
#55000
1%
1M
11
#60000
0%
0M
01
#65000
1%
1M
11
#70000
0%
0M
01
#75000
1%
1M
11
#80000
0&
0N
02
0%
0M
01
#82000
0/
#85000
1%
1M
11
b00000000000000000000000000000001 $
#86000
b1010101010101010 W
b1010101010101010 O
1D
#90000
0%
0M
01
#95000
1%
1M
11
b00000000000000000000000000000010 $
#96000
b1010101010101010 Y
b1010101010101010 P
1E
#100000
0%
0M
01
#105000
1%
1M
11
b00000000000000000000000000000011 $
#106000
b1010101010101010 [
b1010101010101010 Q
1F
#110000
0%
0M
01
#115000
1%
1M
11
b00000000000000000000000000000100 $
#116000
b1010101010101010 ]
b1010101010101010 R
1G
#120000
0%
0M
01
#125000
1%
1M
11
b00000000000000000000000000000101 $
#126000
b1010101010101010 _
b1010101010101010 S
1H
#130000
0%
0M
01
#135000
1%
1M
11
b00000000000000000000000000000110 $
#136000
b1010101010101010 a
b1010101010101010 T
1I
#140000
0%
0M
01
#145000
1%
1M
11
b00000000000000000000000000000111 $
#146000
b1010101010101010 c
b1010101010101010 U
1J
#150000
0%
0M
01
#155000
1%
1M
11
b00000000000000000000000000001000 $
#156000
b1010101010101010 e
b1010101010101010 V
b1010101010101010 '
1K
#160000
0%
0M
01
#165000
1%
1M
11
b00000000000000000000000000001001 $
#166000
b11010101010101010 A
1B
1L
0C
16
1,
b1010101010101010 -
#170000
0%
0M
01
1/
#175000
1%
1M
11
b00000000000000000000000000001010 $
b1010101010101010 0
#176000
0D
#180000
0%
0M
01
#185000
1%
1M
11
b00000000000000000000000000001011 $
#186000
0E
#190000
0%
0M
01
#195000
1%
1M
11
b00000000000000000000000000001100 $
#196000
0F
#200000
0%
0M
01
#205000
1%
1M
11
b00000000000000000000000000001101 $
#206000
0G
#210000
0%
0M
01
#215000
1%
1M
11
b00000000000000000000000000001110 $
#216000
0H
#220000
0%
0M
01
#225000
1%
1M
11
b00000000000000000000000000001111 $
#226000
0I
#230000
0%
0M
01
#235000
1%
1M
11
b00000000000000000000000000010000 $
#236000
0J
#240000
0%
0M
01
#245000
1%
1M
11
b00000000000000000000000000010001 $
#246000
0K
#250000
0%
0M
01
#255000
1%
1M
11
b00000000000000000000000000010010 $
#260000
0%
0M
01
#265000
1%
1M
11
b00000000000000000000000000010011 $
#270000
0%
0M
01
#275000
1%
1M
11
b00000000000000000000000000010100 $
#280000
0%
0M
01
#285000
1%
1M
11
b00000000000000000000000000010101 $
#290000
0%
0M
01
#295000
1%
1M
11
b00000000000000000000000000010110 $
#300000
0%
0M
01
#305000
1%
1M
11
b00000000000000000000000000010111 $
#310000
0%
0M
01
#315000
1%
1M
11
b00000000000000000000000000011000 $
#320000
0%
0M
01
#325000
1%
1M
11
b00000000000000000000000000011001 $
#330000
0%
0M
01
#335000
1%
1M
11
b00000000000000000000000000011010 $
#340000
0%
0M
01
#345000
1%
1M
11
b00000000000000000000000000011011 $
#350000
0%
0M
01
#355000
1%
1M
11
b00000000000000000000000000011100 $
#360000
0%
0M
01
#365000
1%
1M
11
b00000000000000000000000000011101 $
#370000
0%
0M
01
#375000
1%
1M
11
b00000000000000000000000000011110 $
#380000
0%
0M
01
#385000
1%
1M
11
b00000000000000000000000000011111 $
#390000
0%
0M
01
#395000
1%
1M
11
b00000000000000000000000000100000 $
#400000
0%
0M
01
#405000
1%
1M
11
b00000000000000000000000000100001 $
#410000
0%
0M
01
#415000
1%
1M
11
b00000000000000000000000000100010 $
#420000
0%
0M
01
#425000
1%
1M
11
b00000000000000000000000000100011 $
#430000
0%
0M
01
#435000
1%
1M
11
b00000000000000000000000000100100 $
#440000
0%
0M
01
#445000
1%
1M
11
b00000000000000000000000000100101 $
#450000
0%
0M
01
#455000
1%
1M
11
b00000000000000000000000000100110 $
#460000
0%
0M
01
#465000
1%
1M
11
b00000000000000000000000000100111 $
#470000
0%
0M
01
#475000
1%
1M
11
b00000000000000000000000000101000 $
#480000
0%
0M
01
#485000
1%
1M
11
b00000000000000000000000000101001 $
#490000
0%
0M
01
#495000
1%
1M
11
b00000000000000000000000000101010 $
#500000
0%
0M
01
#505000
1%
1M
11
b00000000000000000000000000101011 $
#510000
0%
0M
01
b0000000000111100 +
b0000000000111100 3
b0111100 4
0L
0/
1C
06
b0000000000111100 )
b1010101010010110 *
0,
b0000000000000000 -
#515000
1%
1M
11
b00000000000000000000000000101100 $
#516000
b1010101010010110 W
b1010101010010110 O
1D
b0000000000111100 9
#520000
0%
0M
01
#525000
1%
1M
11
b00000000000000000000000000101101 $
#526000
b1010101010010110 Y
b1010101010010110 P
1E
b0000000000111100 :
#530000
0%
0M
01
#535000
1%
1M
11
b00000000000000000000000000101110 $
#536000
b1010101010010110 [
b1010101010010110 Q
1F
b0000000000111100 ;
#540000
0%
0M
01
#545000
1%
1M
11
b00000000000000000000000000101111 $
#546000
b1010101010010110 ]
b1010101010010110 R
1G
b0000000000111100 <
#550000
0%
0M
01
#555000
1%
1M
11
b00000000000000000000000000110000 $
#556000
b1010101010010110 _
b1010101010010110 S
1H
b0000000000111100 =
#560000
0%
0M
01
#565000
1%
1M
11
b00000000000000000000000000110001 $
#566000
b1010101010010110 a
b1010101010010110 T
1I
b0000000000111100 >
#570000
0%
0M
01
#575000
1%
1M
11
b00000000000000000000000000110010 $
#576000
b1010101010010110 c
b1010101010010110 U
1J
b0000000000111100 ?
0B
#580000
0%
0M
01
#585000
1%
1M
11
b00000000000000000000000000110011 $
#586000
b1010101010010110 e
b1010101010010110 V
b1010101010010110 '
1K
b0000000000111100 @
#590000
0%
0M
01
#595000
1%
1M
11
b00000000000000000000000000110100 $
#596000
1B
1L
0C
16
b0000000000000000 )
b1010101010101010 *
1,
b1010101010010110 -
#600000
0%
0M
01
1/
#605000
1%
1M
11
b00000000000000000000000000110101 $
b1010101010010110 0
#606000
b1010101010101010 W
b1010101010101010 O
0D
b0000000000000000 9
#610000
0%
0M
01
#615000
1%
1M
11
b00000000000000000000000000110110 $
#616000
b1010101010101010 Y
b1010101010101010 P
0E
b0000000000000000 :
#620000
0%
0M
01
#625000
1%
1M
11
b00000000000000000000000000110111 $
#626000
b1010101010101010 [
b1010101010101010 Q
0F
b0000000000000000 ;
#630000
0%
0M
01
#635000
1%
1M
11
b00000000000000000000000000111000 $
#636000
b1010101010101010 ]
b1010101010101010 R
0G
b0000000000000000 <
#640000
0%
0M
01
#645000
1%
1M
11
b00000000000000000000000000111001 $
#646000
b1010101010101010 _
b1010101010101010 S
0H
b0000000000000000 =
#650000
0%
0M
01
#655000
1%
1M
11
b00000000000000000000000000111010 $
#656000
b1010101010101010 a
b1010101010101010 T
0I
b0000000000000000 >
#660000
0%
0M
01
#665000
1%
1M
11
b00000000000000000000000000111011 $
#666000
b1010101010101010 c
b1010101010101010 U
0J
b0000000000000000 ?
#670000
0%
0M
01
#675000
1%
1M
11
b00000000000000000000000000111100 $
#676000
b1010101010101010 e
b1010101010101010 V
b1010101010101010 '
0K
b0000000000000000 @
#680000
0%
0M
01
#685000
1%
1M
11
b00000000000000000000000000111101 $
#690000
0%
0M
01
#695000
1%
1M
11
b00000000000000000000000000111110 $
#700000
0%
0M
01
#705000
1%
1M
11
b00000000000000000000000000111111 $
#710000
0%
0M
01
#715000
1%
1M
11
b00000000000000000000000001000000 $
#720000
0%
0M
01
#725000
1%
1M
11
b00000000000000000000000001000001 $
#730000
0%
0M
01
#735000
1%
1M
11
b00000000000000000000000001000010 $
#740000
0%
0M
01
#745000
1%
1M
11
b00000000000000000000000001000011 $
#750000
0%
0M
01
#755000
1%
1M
11
b00000000000000000000000001000100 $
#760000
0%
0M
01
#765000
1%
1M
11
b00000000000000000000000001000101 $
#770000
0%
0M
01
#775000
1%
1M
11
b00000000000000000000000001000110 $
#780000
0%
0M
01
#785000
1%
1M
11
b00000000000000000000000001000111 $
#790000
0%
0M
01
#795000
1%
1M
11
b00000000000000000000000001001000 $
#800000
0%
0M
01
#805000
1%
1M
11
b00000000000000000000000001001001 $
#810000
0%
0M
01
#815000
1%
1M
11
b00000000000000000000000001001010 $
#820000
0%
0M
01
#825000
1%
1M
11
b00000000000000000000000001001011 $
#830000
0%
0M
01
#835000
1%
1M
11
b00000000000000000000000001001100 $
#840000
0%
0M
01
#845000
1%
1M
11
b00000000000000000000000001001101 $
#850000
0%
0M
01
#855000
1%
1M
11
b00000000000000000000000001001110 $
#860000
0%
0M
01
#865000
1%
1M
11
b00000000000000000000000001001111 $
#870000
0%
0M
01
#875000
1%
1M
11
b00000000000000000000000001010000 $
#880000
0%
0M
01
#885000
1%
1M
11
b00000000000000000000000001010001 $
#890000
0%
0M
01
#895000
1%
1M
11
b00000000000000000000000001010010 $
#900000
0%
0M
01
#905000
1%
1M
11
b00000000000000000000000001010011 $
#910000
0%
0M
01
#915000
1%
1M
11
b00000000000000000000000001010100 $
#920000
0%
0M
01
#925000
1%
1M
11
b00000000000000000000000001010101 $
#930000
0%
0M
01
#935000
1%
1M
11
b00000000000000000000000001010110 $
#940000
0%
0M
01
#945000
1%
1M
11
b00000000000000000000000001010111 $
#950000
0%
0M
01
#955000
1%
1M
11
b00000000000000000000000001011000 $
#960000
0%
0M
01
#965000
1%
1M
11
b00000000000000000000000001011001 $
#970000
0%
0M
01
#975000
1%
1M
11
b00000000000000000000000001011010 $
#980000
0%
0M
01
#985000
1%
1M
11
b00000000000000000000000001011011 $
#990000
0%
0M
01
#995000
1%
1M
11
b00000000000000000000000001011100 $
#1000000
0%
0M
01
#1005000
1%
1M
11
b00000000000000000000000001011101 $
#1010000
0%
0M
01
#1015000
1%
1M
11
b00000000000000000000000001011110 $
#1020000
0%
0M
01
#1025000
1%
1M
11
b00000000000000000000000001011111 $
#1030000
0%
0M
01
#1035000
1%
1M
11
b00000000000000000000000001100000 $
#1040000
0%
0M
01
#1045000
1%
1M
11
b00000000000000000000000001100001 $
#1050000
0%
0M
01
#1055000
1%
1M
11
b00000000000000000000000001100010 $
#1060000
0%
0M
01
#1065000
1%
1M
11
b00000000000000000000000001100011 $
#1070000
0%
0M
01
#1075000
1%
1M
11
b00000000000000000000000001100100 $
#1080000
0%
0M
01
#1085000
1%
1M
11
b00000000000000000000000001100101 $
#1090000
0%
0M
01
#1095000
1%
1M
11
b00000000000000000000000001100110 $
#1100000
0%
0M
01
#1105000
1%
1M
11
b00000000000000000000000001100111 $
#1110000
0%
0M
01
#1115000
1%
1M
11
b00000000000000000000000001101000 $
#1120000
0%
0M
01
#1125000
1%
1M
11
b00000000000000000000000001101001 $
#1130000
0%
0M
01
#1135000
1%
1M
11
b00000000000000000000000001101010 $
#1140000
0%
0M
01
#1145000
1%
1M
11
b00000000000000000000000001101011 $
#1150000
0%
0M
01
#1155000
1%
1M
11
b00000000000000000000000001101100 $
#1160000
0%
0M
01
#1165000
1%
1M
11
b00000000000000000000000001101101 $
#1170000
0%
0M
01
#1175000
1%
1M
11
b00000000000000000000000001101110 $
#1180000
0%
0M
01
#1185000
1%
1M
11
b00000000000000000000000001101111 $
#1190000
0%
0M
01
#1195000
1%
1M
11
b00000000000000000000000001110000 $
#1200000
0%
0M
01
#1205000
1%
1M
11
b00000000000000000000000001110001 $
#1210000
0%
0M
01
#1215000
1%
1M
11
b00000000000000000000000001110010 $
#1220000
0%
0M
01
#1225000
1%
1M
11
b00000000000000000000000001110011 $
#1230000
0%
0M
01
#1235000
1%
1M
11
b00000000000000000000000001110100 $
#1240000
0%
0M
01
#1245000
1%
1M
11
b00000000000000000000000001110101 $
#1250000
0%
0M
01
#1255000
1%
1M
11
b00000000000000000000000001110110 $
#1260000
0%
0M
01
#1265000
1%
1M
11
b00000000000000000000000001110111 $
#1270000
0%
0M
01
#1275000
1%
1M
11
b00000000000000000000000001111000 $
#1280000
0%
0M
01
#1285000
1%
1M
11
b00000000000000000000000001111001 $
#1290000
0%
0M
01
#1295000
1%
1M
11
b00000000000000000000000001111010 $
#1300000
0%
0M
01
#1305000
1%
1M
11
b00000000000000000000000001111011 $
#1310000
0%
0M
01
#1315000
1%
1M
11
b00000000000000000000000001111100 $
#1320000
0%
0M
01
#1325000
1%
1M
11
b00000000000000000000000001111101 $
#1330000
0%
0M
01
#1335000
1%
1M
11
b00000000000000000000000001111110 $
#1340000
0%
0M
01
#1345000
1%
1M
11
b00000000000000000000000001111111 $
#1350000
0%
0M
01
#1355000
1%
1M
11
b00000000000000000000000010000000 $
#1360000
0%
0M
01
#1365000
1%
1M
11
b00000000000000000000000010000001 $
#1370000
0%
0M
01
#1375000
1%
1M
11
b00000000000000000000000010000010 $
#1380000
0%
0M
01
#1385000
1%
1M
11
b00000000000000000000000010000011 $
#1390000
0%
0M
01
#1395000
1%
1M
11
b00000000000000000000000010000100 $
#1400000
0%
0M
01
#1405000
1%
1M
11
b00000000000000000000000010000101 $
#1410000
0%
0M
01
#1415000
1%
1M
11
b00000000000000000000000010000110 $
#1420000
0%
0M
01
#1425000
1%
1M
11
b00000000000000000000000010000111 $
#1430000
0%
0M
01
#1435000
1%
1M
11
b00000000000000000000000010001000 $
#1440000
0%
0M
01
#1445000
1%
1M
11
b00000000000000000000000010001001 $
#1450000
0%
0M
01
#1455000
1%
1M
11
b00000000000000000000000010001010 $
#1460000
0%
0M
01
#1465000
1%
1M
11
b00000000000000000000000010001011 $
#1470000
0%
0M
01
#1475000
1%
1M
11
b00000000000000000000000010001100 $
#1480000
0%
0M
01
#1485000
1%
1M
11
b00000000000000000000000010001101 $
#1490000
0%
0M
01
#1495000
1%
1M
11
b00000000000000000000000010001110 $
#1500000
0%
0M
01
#1505000
1%
1M
11
b00000000000000000000000010001111 $
#1510000
0%
0M
01
#1515000
1%
1M
11
b00000000000000000000000010010000 $
#1520000
0%
0M
01
#1525000
1%
1M
11
b00000000000000000000000010010001 $
#1530000
0%
0M
01
#1535000
1%
1M
11
b00000000000000000000000010010010 $
#1540000
0%
0M
01
#1545000
1%
1M
11
b00000000000000000000000010010011 $
#1550000
0%
0M
01
#1555000
1%
1M
11
b00000000000000000000000010010100 $
#1560000
0%
0M
01
#1565000
1%
1M
11
b00000000000000000000000010010101 $
#1570000
0%
0M
01
#1575000
1%
1M
11
b00000000000000000000000010010110 $
#1580000
0%
0M
01
#1585000
1%
1M
11
b00000000000000000000000010010111 $
#1590000
0%
0M
01
#1595000
1%
1M
11
b00000000000000000000000010011000 $
#1600000
0%
0M
01
#1605000
1%
1M
11
b00000000000000000000000010011001 $
#1610000
0%
0M
01
#1615000
1%
1M
11
b00000000000000000000000010011010 $
#1620000
0%
0M
01
#1625000
1%
1M
11
b00000000000000000000000010011011 $
#1630000
0%
0M
01
#1635000
1%
1M
11
b00000000000000000000000010011100 $
#1640000
0%
0M
01
#1645000
1%
1M
11
b00000000000000000000000010011101 $
#1650000
0%
0M
01
#1655000
1%
1M
11
b00000000000000000000000010011110 $
#1660000
0%
0M
01
#1665000
1%
1M
11
b00000000000000000000000010011111 $
#1670000
0%
0M
01
#1675000
1%
1M
11
b00000000000000000000000010100000 $
#1680000
0%
0M
01
#1685000
1%
1M
11
b00000000000000000000000010100001 $
#1690000
0%
0M
01
#1695000
1%
1M
11
b00000000000000000000000010100010 $
#1700000
0%
0M
01
#1705000
1%
1M
11
b00000000000000000000000010100011 $
#1710000
0%
0M
01
#1715000
1%
1M
11
b00000000000000000000000010100100 $
#1720000
0%
0M
01
#1725000
1%
1M
11
b00000000000000000000000010100101 $
#1730000
0%
0M
01
#1735000
1%
1M
11
b00000000000000000000000010100110 $
#1740000
0%
0M
01
#1745000
1%
1M
11
b00000000000000000000000010100111 $
#1750000
0%
0M
01
#1755000
1%
1M
11
b00000000000000000000000010101000 $
#1760000
0%
0M
01
#1765000
1%
1M
11
b00000000000000000000000010101001 $
#1770000
0%
0M
01
#1775000
1%
1M
11
b00000000000000000000000010101010 $
#1780000
0%
0M
01
#1785000
1%
1M
11
b00000000000000000000000010101011 $
#1790000
0%
0M
01
#1795000
1%
1M
11
b00000000000000000000000010101100 $
#1800000
0%
0M
01
#1805000
1%
1M
11
b00000000000000000000000010101101 $
#1810000
0%
0M
01
#1815000
1%
1M
11
b00000000000000000000000010101110 $
#1820000
0%
0M
01
#1825000
1%
1M
11
b00000000000000000000000010101111 $
#1830000
0%
0M
01
#1835000
1%
1M
11
b00000000000000000000000010110000 $
#1840000
0%
0M
01
#1845000
1%
1M
11
b00000000000000000000000010110001 $
#1850000
0%
0M
01
#1855000
1%
1M
11
b00000000000000000000000010110010 $
#1860000
0%
0M
01
#1865000
1%
1M
11
b00000000000000000000000010110011 $
#1870000
0%
0M
01
#1875000
1%
1M
11
b00000000000000000000000010110100 $
#1880000
0%
0M
01
#1885000
1%
1M
11
b00000000000000000000000010110101 $
#1890000
0%
0M
01
#1895000
1%
1M
11
b00000000000000000000000010110110 $
#1900000
0%
0M
01
#1905000
1%
1M
11
b00000000000000000000000010110111 $
#1910000
0%
0M
01
#1915000
1%
1M
11
b00000000000000000000000010111000 $
#1920000
0%
0M
01
#1925000
1%
1M
11
b00000000000000000000000010111001 $
#1930000
0%
0M
01
#1935000
1%
1M
11
b00000000000000000000000010111010 $
#1940000
0%
0M
01
#1945000
1%
1M
11
b00000000000000000000000010111011 $
#1950000
0%
0M
01
#1955000
1%
1M
11
b00000000000000000000000010111100 $
#1960000
0%
0M
01
#1965000
1%
1M
11
b00000000000000000000000010111101 $
#1970000
0%
0M
01
#1975000
1%
1M
11
b00000000000000000000000010111110 $
#1980000
0%
0M
01
#1985000
1%
1M
11
b00000000000000000000000010111111 $
#1990000
0%
0M
01
#1995000
1%
1M
11
b00000000000000000000000011000000 $
#2000000
0%
0M
01
#2005000
1%
1M
11
b00000000000000000000000011000001 $
#2010000
0%
0M
01
#2015000
1%
1M
11
b00000000000000000000000011000010 $
#2020000
0%
0M
01
#2025000
1%
1M
11
b00000000000000000000000011000011 $
#2030000
0%
0M
01
#2035000
1%
1M
11
b00000000000000000000000011000100 $
#2040000
0%
0M
01
#2045000
1%
1M
11
b00000000000000000000000011000101 $
#2050000
0%
0M
01
#2055000
1%
1M
11
b00000000000000000000000011000110 $
#2060000
0%
0M
01
#2065000
1%
1M
11
b00000000000000000000000011000111 $
#2070000
0%
0M
01
#2075000
1%
1M
11
b00000000000000000000000011001000 $
#2080000
0%
0M
01
#2085000
1%
1M
11
b00000000000000000000000011001001 $
#2090000
0%
0M
01
#2095000
1%
1M
11
b00000000000000000000000011001010 $
#2100000
0%
0M
01
#2105000
1%
1M
11
b00000000000000000000000011001011 $
#2110000
0%
0M
01
#2115000
1%
1M
11
b00000000000000000000000011001100 $
#2120000
0%
0M
01
#2125000
1%
1M
11
b00000000000000000000000011001101 $
#2130000
0%
0M
01
#2135000
1%
1M
11
b00000000000000000000000011001110 $
#2140000
0%
0M
01
#2145000
1%
1M
11
b00000000000000000000000011001111 $
#2150000
0%
0M
01
#2155000
1%
1M
11
b00000000000000000000000011010000 $
#2160000
0%
0M
01
#2165000
1%
1M
11
b00000000000000000000000011010001 $
#2170000
0%
0M
01
#2175000
1%
1M
11
b00000000000000000000000011010010 $
#2180000
0%
0M
01
#2185000
1%
1M
11
b00000000000000000000000011010011 $
#2190000
0%
0M
01
#2195000
1%
1M
11
b00000000000000000000000011010100 $
#2200000
0%
0M
01
#2205000
1%
1M
11
b00000000000000000000000011010101 $
#2210000
0%
0M
01
#2215000
1%
1M
11
b00000000000000000000000011010110 $
#2220000
0%
0M
01
#2225000
1%
1M
11
b00000000000000000000000011010111 $
#2230000
0%
0M
01
#2235000
1%
1M
11
b00000000000000000000000011011000 $
#2240000
0%
0M
01
#2245000
1%
1M
11
b00000000000000000000000011011001 $
#2250000
0%
0M
01
#2255000
1%
1M
11
b00000000000000000000000011011010 $
#2260000
0%
0M
01
#2265000
1%
1M
11
b00000000000000000000000011011011 $
#2270000
0%
0M
01
#2275000
1%
1M
11
b00000000000000000000000011011100 $
#2280000
0%
0M
01
#2285000
1%
1M
11
b00000000000000000000000011011101 $
#2290000
0%
0M
01
#2295000
1%
1M
11
b00000000000000000000000011011110 $
#2300000
0%
0M
01
#2305000
1%
1M
11
b00000000000000000000000011011111 $
#2310000
0%
0M
01
#2315000
1%
1M
11
b00000000000000000000000011100000 $
#2320000
0%
0M
01
#2325000
1%
1M
11
b00000000000000000000000011100001 $
#2330000
0%
0M
01
#2335000
1%
1M
11
b00000000000000000000000011100010 $
#2340000
0%
0M
01
#2345000
1%
1M
11
b00000000000000000000000011100011 $
#2350000
0%
0M
01
#2355000
1%
1M
11
b00000000000000000000000011100100 $
#2360000
0%
0M
01
#2365000
1%
1M
11
b00000000000000000000000011100101 $
#2370000
0%
0M
01
#2375000
1%
1M
11
b00000000000000000000000011100110 $
#2380000
0%
0M
01
#2385000
1%
1M
11
b00000000000000000000000011100111 $
#2390000
0%
0M
01
#2395000
1%
1M
11
b00000000000000000000000011101000 $
#2400000
0%
0M
01
#2405000
1%
1M
11
b00000000000000000000000011101001 $
#2410000
0%
0M
01
#2415000
1%
1M
11
b00000000000000000000000011101010 $
#2420000
0%
0M
01
#2425000
1%
1M
11
b00000000000000000000000011101011 $
#2430000
0%
0M
01
#2435000
1%
1M
11
b00000000000000000000000011101100 $
#2440000
0%
0M
01
#2445000
1%
1M
11
b00000000000000000000000011101101 $
#2450000
0%
0M
01
#2455000
1%
1M
11
b00000000000000000000000011101110 $
#2460000
0%
0M
01
#2465000
1%
1M
11
b00000000000000000000000011101111 $
#2470000
0%
0M
01
#2475000
1%
1M
11
b00000000000000000000000011110000 $
#2480000
0%
0M
01
#2485000
1%
1M
11
b00000000000000000000000011110001 $
#2490000
0%
0M
01
#2495000
1%
1M
11
b00000000000000000000000011110010 $
#2500000
0%
0M
01
#2505000
1%
1M
11
b00000000000000000000000011110011 $
#2510000
0%
0M
01
#2515000
1%
1M
11
b00000000000000000000000011110100 $
#2520000
0%
0M
01
#2525000
1%
1M
11
b00000000000000000000000011110101 $
#2530000
0%
0M
01
#2535000
1%
1M
11
b00000000000000000000000011110110 $
#2540000
0%
0M
01
#2545000
1%
1M
11
b00000000000000000000000011110111 $
#2550000
0%
0M
01
#2555000
1%
1M
11
b00000000000000000000000011111000 $
#2560000
0%
0M
01
#2565000
1%
1M
11
b00000000000000000000000011111001 $
#2570000
0%
0M
01
#2575000
1%
1M
11
b00000000000000000000000011111010 $
#2580000
0%
0M
01
#2585000
1%
1M
11
b00000000000000000000000011111011 $
#2590000
0%
0M
01
#2595000
1%
1M
11
b00000000000000000000000011111100 $
#2600000
0%
0M
01
#2605000
1%
1M
11
b00000000000000000000000011111101 $
#2610000
0%
0M
01
#2615000
1%
1M
11
b00000000000000000000000011111110 $
#2620000
0%
0M
01
#2625000
1%
1M
11
b00000000000000000000000011111111 $
#2630000
0%
0M
01
#2635000
1%
1M
11
b00000000000000000000000100000000 $
#2640000
0%
0M
01
#2645000
1%
1M
11
b00000000000000000000000100000001 $
#2650000
0%
0M
01
#2655000
1%
1M
11
b00000000000000000000000100000010 $
